Problem Set 6
…
mv %>%
group_by(runtime)%>%
summarise(meanBudget = mean(budget, na.rm=T))

## # A tibble: 139 × 2
##    runtime meanBudget
##      <dbl>      <dbl>
##  1      55       NaN 
##  2      63  35709321.
##  3      69       NaN 
##  4      71       NaN 
##  5      72  29435266.
##  6      73       NaN 
##  7      74     99207.
##  8      75  26757191.
##  9      76  51759120.
## 10      77  40883393.
## # … with 129 more rows
…
mv %>%
group_by(year)%>%
summarise(meanScore = mean(score, na.rm=T))

## # A tibble: 21 × 2
##     year meanScore
##    <dbl>     <dbl>
##  1  2000      6.25
##  2  2001      6.34
##  3  2002      6.28
##  4  2003      6.26
##  5  2004      6.36
##  6  2005      6.34
##  7  2006      6.39
##  8  2007      6.43
##  9  2008      6.38
## 10  2009      6.44
## # … with 11 more rows
…
